Monad Autograder
Testing lab_heaps at 2014-07-13 20:37:14

"If you don't hand in the next homework, you might miss some points." ~ Prof. Jiawei Han

Setting up test environment...
Compiling...
================================================================


Running tests...
================================================================
peek1  . . . [5 pts] - passed
peek2  . . . [5 pts] - passed
heapifyDown1 [9 pts] - passed
heapifyDown2 [9 pts] - passed
heapifyDown3 [9 pts] - passed
heapifyDown4 [9 pts] - passed
heapifyDown5 [9 pts] - passed
buildHeap1 . [9 pts] - passed
buildHeap2 . [9 pts] - passed
buildHeap3 . [9 pts] - passed
buildHeap4 . [9 pts] - passed
buildHeap5 . [9 pts] - passed


Total score...
================================================================
TOTAL SCORE: 100

